{
  "accounts": [
    {
      "AccesskeyID": "account_id_1",
      "Secretaccesskey": "secret_key_1"
    },
    {
      "AccesskeyID": "account_id_2",
      "Secretaccesskey": "secret_key_2"
    },
  ]
}